[
    {
        "hostname": "asr1001-x.abc.inc",
        "reachabilityStatus": "Reachable"
    },
    {
        "hostname": "cat_9k_1",
        "reachabilityStatus": "Reachable"
    },
    {
        "hostname": "cat_9k_2",
        "reachabilityStatus": "Reachable"
    },
    {
        "hostname": "cs3850.abc.inc",
        "reachabilityStatus": "Reachable"
    }
]